<?xml version="1.0" encoding="UTF-8" standalone="no"?>
<!-- Created with Inkscape (http://www.inkscape.org/) -->
<svg xmlns:dc="http://purl.org/dc/elements/1.1/" xmlns:cc="http://web.resource.org/cc/" xmlns:rdf="http://www.w3.org/1999/02/22-rdf-syntax-ns#" xmlns:svg="http://www.w3.org/2000/svg" xmlns="http://www.w3.org/2000/svg" xmlns:sodipodi="http://sodipodi.sourceforge.net/DTD/sodipodi-0.dtd" xmlns:inkscape="http://www.inkscape.org/namespaces/inkscape" version="1.0" width="193.48" height="207.27" id="svg3500" sodipodi:version="0.32" inkscape:version="0.45" sodipodi:docname="Littleghost.svg" sodipodi:docbase="/home/rugby471/Desktop" inkscape:output_extension="org.inkscape.output.svg.inkscape" sodipodi:modified="true">
  <metadata id="metadata9">
    <rdf:RDF>
      <cc:Work rdf:about="">
        <dc:format>image/svg+xml</dc:format>
        <dc:type rdf:resource="http://purl.org/dc/dcmitype/StillImage"/>
      </cc:Work>
    </rdf:RDF>
  </metadata>
  <sodipodi:namedview inkscape:window-height="622" inkscape:window-width="910" inkscape:pageshadow="2" inkscape:pageopacity="0.0" guidetolerance="10.0" gridtolerance="10.0" objecttolerance="10.0" borderopacity="1.0" bordercolor="#666666" pagecolor="#ffffff" id="base" width="193.48px" height="207.27px" inkscape:zoom="1.5898438" inkscape:cx="128.5" inkscape:cy="127.6855" inkscape:window-x="51" inkscape:window-y="28" inkscape:current-layer="svg3500"/>
  <defs id="defs3502"/>
  <g id="g3134" transform="translate(1.2579853,0.6289926)">
    <path d="M 2.5,203.77299 C 2.5,-65.707868 190.57508,-63.471798 188.97308,203.77299 C 180.51916,152.89157 135.77251,152.89249 126.49499,203.77299 C 118.24898,153.26373 71.56858,153.54466 64.65769,203.77299 C 53.12327,153.35797 11.87053,153.36753 2.5,203.77299 z " style="fill:#000000;fill-opacity:1;fill-rule:evenodd;stroke:#000000;stroke-width:5;stroke-linecap:butt;stroke-linejoin:miter;stroke-miterlimit:4;stroke-dasharray:none;stroke-opacity:1" id="path3522"/>
    <path d="M 86.12452,63.277362 C 86.12778,75.932482 78.3089,86.193752 68.6627,86.193752 C 59.01649,86.193752 51.19761,75.932482 51.20087,63.277362 C 51.19761,50.622242 59.01649,40.360972 68.6627,40.360972 C 78.3089,40.360972 86.12778,50.622242 86.12452,63.277362 z " style="fill:#ffffff;fill-opacity:1;stroke:#000000;stroke-width:4;stroke-linecap:round;stroke-linejoin:miter;stroke-miterlimit:4;stroke-dasharray:none;stroke-dashoffset:0.5944;stroke-opacity:1" id="path3528"/>
    <path d="M 141.23341,63.277362 C 141.23667,75.932482 133.41779,86.193752 123.77159,86.193752 C 114.12538,86.193752 106.3065,75.932482 106.30976,63.277362 C 106.3065,50.622242 114.12538,40.360972 123.77159,40.360972 C 133.41779,40.360972 141.23667,50.622242 141.23341,63.277362 z " style="fill:#ffffff;fill-opacity:1;stroke:#000000;stroke-width:4;stroke-linecap:round;stroke-linejoin:miter;stroke-miterlimit:4;stroke-dasharray:none;stroke-dashoffset:0.5944;stroke-opacity:1" id="path3530"/>
  </g>
</svg>